…
### `tags/search`

``` r
## search tags data
ig_tags <- ig_tags_search(q = "metoo")

## view data
ig_as_tbl(ig_tags)
#>  $ meta
#>    $ code: 200
#>  $ data
#>    $ class: data.frame
#>    $ dims: 50 obs x 2 vars
#> # A tibble: 50 x 2
#>    name              media_count
#>  * <chr>                   <int>
#>  1 metoo                 1247390
#>  2 metooâ¤ï¸                 25948
#>  3 metootoys                4472
#>  4 metoomovement           26865
#>  5 metoodoll               27522
#>  6 metoodolls              10114
#>  7 metooo                   2392
#>  8 metooangela             10270
#>  9 metoobuddy               3334
#> 10 sheknowsmetoowell       41379
#> # ... with 40 more rows
```
…
