Client for Instagram API • ig
…
tags/search

## search tags data
ig_tags <- ig_tags_search(q = "metoo")

## view data
ig_as_tbl(ig_tags)
#>  $ meta
#>    $ code: 200
#>  $ data
#>    $ class: data.frame
#>    $ dims: 50 obs x 2 vars
#> # A tibble: 50 x 2
#>    name          media_count
#>  * <chr>               <int>
#>  1 metoo             1308164
#>  2 metoomovement       30830
#>  3 metoodoll           29311
#>  4 metoo❤️             26961
#>  5 metoodolls          10851
#>  6 metooo               2427
#>  7 metooangela         10647
#>  8 metootoys            4628
#>  9 metoosweden          2390
#> 10 metoobebek            908
#> # ... with 40 more rows
…
